\relax 
\providecommand\hyper@newdestlabel[2]{}
\providecommand\HyperFirstAtBeginDocument{\AtBeginDocument}
\HyperFirstAtBeginDocument{\ifx\hyper@anchor\@undefined
\global\let\oldcontentsline\contentsline
\gdef\contentsline#1#2#3#4{\oldcontentsline{#1}{#2}{#3}}
\global\let\oldnewlabel\newlabel
\gdef\newlabel#1#2{\newlabelxx{#1}#2}
\gdef\newlabelxx#1#2#3#4#5#6{\oldnewlabel{#1}{{#2}{#3}}}
\AtEndDocument{\ifx\hyper@anchor\@undefined
\let\contentsline\oldcontentsline
\let\newlabel\oldnewlabel
\fi}
\fi}
\global\let\hyper@last\relax 
\gdef\HyperFirstAtBeginDocument#1{#1}
\providecommand\HyField@AuxAddToFields[1]{}
\providecommand\HyField@AuxAddToCoFields[2]{}
\providecommand\pbs@newkey[2]{}\providecommand\pbs@seq@push@cx[2]{}\providecommand\pbs@at@end@dvi@check{}
\pbs@at@end@dvi@check
\providecommand\@anim@newkey[2]{}
\pbs@newkey{pbs@last@page}{1}
\pbs@newkey{pbs@last@page}{2}
\citation{Ozisik:1993}
\pbs@newkey{pbs@last@page}{3}
\@writefile{toc}{\contentsline {section}{\numberline {1}Introduction}{3}{section.1}}
\@writefile{toc}{\contentsline {section}{\numberline {2}G\IeC {\'e}om\IeC {\'e}trie slab}{3}{section.2}}
\@writefile{toc}{\contentsline {subsection}{\numberline {2.1}Probl\IeC {\`e}me}{3}{subsection.2.1}}
\pbs@newkey{pbs@last@page}{4}
\@writefile{toc}{\contentsline {subsection}{\numberline {2.2}Profil de temp\IeC {\'e}rature initial}{4}{subsection.2.2}}
\newlabel{para:init_cond}{{2.2}{4}{Profil de température initial}{subsection.2.2}{}}
\@writefile{toc}{\contentsline {subsection}{\numberline {2.3}Superposition}{4}{subsection.2.3}}
\pbs@newkey{pbs@last@page}{5}
\@writefile{toc}{\contentsline {subsubsection}{\numberline {2.3.1}Sous-probl\IeC {\`e}me 1: stationnaire}{5}{subsubsection.2.3.1}}
\newlabel{para:sp1}{{2.3.1}{5}{Sous-problème 1: stationnaire}{subsubsection.2.3.1}{}}
\@writefile{toc}{\contentsline {subsubsection}{\numberline {2.3.2}Sous-probl\IeC {\`e}me 2: instationnaire homog\IeC {\`e}ne}{5}{subsubsection.2.3.2}}
\newlabel{para:sp2}{{2.3.2}{5}{Sous-problème 2: instationnaire homogène}{subsubsection.2.3.2}{}}
\newlabel{eq:diffusion1D}{{12}{5}{Sous-problème 2: instationnaire homogène}{equation.2.12}{}}
\newlabel{eq:CL1}{{13}{5}{Sous-problème 2: instationnaire homogène}{equation.2.13}{}}
\newlabel{eq:CL2}{{14}{5}{Sous-problème 2: instationnaire homogène}{equation.2.14}{}}
\pbs@newkey{pbs@last@page}{6}
\@writefile{toc}{\contentsline {subsection}{\numberline {2.4}R\IeC {\'e}solution du probl\IeC {\`e}me instationnaire homog\IeC {\`e}ne}{6}{subsection.2.4}}
\@writefile{toc}{\contentsline {subsubsection}{\numberline {2.4.1}S\IeC {\'e}paration des variables}{6}{subsubsection.2.4.1}}
\newlabel{eq:T2_gen_exp}{{15}{6}{Séparation des variables}{equation.2.15}{}}
\newlabel{eq:cm}{{20}{6}{Séparation des variables}{equation.2.20}{}}
\pbs@newkey{pbs@last@page}{7}
\@writefile{toc}{\contentsline {subsubsection}{\numberline {2.4.2}Les conditions aux limites}{7}{subsubsection.2.4.2}}
\newlabel{eq:tan_relation}{{23}{7}{Les conditions aux limites}{equation.2.23}{}}
\@writefile{toc}{\contentsline {subsubsection}{\numberline {2.4.3}Int\IeC {\'e}grale de normalisation}{7}{subsubsection.2.4.3}}
\pbs@newkey{pbs@last@page}{8}
\newlabel{eq:N2}{{30}{8}{Intégrale de normalisation}{equation.2.30}{}}
\newlabel{eq:sin2_relation}{{31}{8}{Intégrale de normalisation}{equation.2.31}{}}
\newlabel{eq:N3}{{32}{8}{Intégrale de normalisation}{equation.2.32}{}}
\pbs@newkey{pbs@last@page}{9}
\newlabel{eq:Nbeta}{{33}{9}{Intégrale de normalisation}{equation.2.33}{}}
\@writefile{toc}{\contentsline {subsubsection}{\numberline {2.4.4}Coefficients de la s\IeC {\'e}rie de Fourier}{9}{subsubsection.2.4.4}}
\newlabel{para:coeffs_fourier}{{2.4.4}{9}{Coefficients de la série de Fourier}{subsubsection.2.4.4}{}}
\newlabel{eq:ic_integration}{{34}{9}{Coefficients de la série de Fourier}{equation.2.34}{}}
\@writefile{toc}{\contentsline {subsection}{\numberline {2.5}R\IeC {\'e}sultats}{9}{subsection.2.5}}
\newlabel{para:results_wall}{{2.5}{9}{Résultats}{subsection.2.5}{}}
\pbs@newkey{pbs@last@page}{10}
\pbs@newkey{pbs@last@page}{11}
\@writefile{lof}{\contentsline {figure}{\numberline {1}{\ignorespaces }}{11}{figure.1}}
\newlabel{fig:Tsolid_analytical}{{1}{11}{}{figure.1}{}}
\@writefile{lof}{\contentsline {figure}{\numberline {2}{\ignorespaces }}{11}{figure.2}}
\newlabel{fig:Tsolid}{{2}{11}{}{figure.2}{}}
\pbs@newkey{pbs@last@page}{12}
\@writefile{lof}{\contentsline {figure}{\numberline {3}{\ignorespaces }}{12}{figure.3}}
\newlabel{fig:Te_signal_analytical}{{3}{12}{}{figure.3}{}}
\@writefile{lof}{\contentsline {figure}{\numberline {4}{\ignorespaces }}{12}{figure.4}}
\newlabel{fig:Te_signal}{{4}{12}{}{figure.4}{}}
\pbs@newkey{pbs@last@page}{13}
\@writefile{toc}{\contentsline {subsection}{\numberline {2.6}D\IeC {\'e}gagement homog\IeC {\`e}ne de puissance volumique}{13}{subsection.2.6}}
\@writefile{toc}{\contentsline {subsubsection}{\numberline {2.6.1}Modification de la solution stationnaire}{13}{subsubsection.2.6.1}}
\pbs@newkey{pbs@last@page}{14}
\@writefile{toc}{\contentsline {subsubsection}{\numberline {2.6.2}Modification des coefficients de la s\IeC {\'e}rie de Fourier}{14}{subsubsection.2.6.2}}
\pbs@newkey{pbs@last@page}{15}
\@writefile{lof}{\contentsline {figure}{\numberline {5}{\ignorespaces }}{15}{figure.5}}
\newlabel{fig:Tsolid_analytical_wallP}{{5}{15}{}{figure.5}{}}
\@writefile{lof}{\contentsline {figure}{\numberline {6}{\ignorespaces }}{15}{figure.6}}
\newlabel{fig:Tsolid_MC_vs_analytical_wallP}{{6}{15}{}{figure.6}{}}
\pbs@newkey{pbs@last@page}{16}
\@writefile{toc}{\contentsline {subsection}{\numberline {2.7}Conditions de type Dirichlet}{16}{subsection.2.7}}
\pbs@newkey{pbs@last@page}{17}
\pbs@newkey{pbs@last@page}{18}
\@writefile{lof}{\contentsline {figure}{\numberline {7}{\ignorespaces }}{18}{figure.7}}
\newlabel{fig:Tsolid_analytical_Dirichlet}{{7}{18}{}{figure.7}{}}
\@writefile{lof}{\contentsline {figure}{\numberline {8}{\ignorespaces }}{18}{figure.8}}
\newlabel{fig:Tsolid_Dirichlet}{{8}{18}{}{figure.8}{}}
\pbs@newkey{pbs@last@page}{19}
\pbs@newkey{pbs@last@page}{20}
\@writefile{lof}{\contentsline {figure}{\numberline {9}{\ignorespaces }}{20}{figure.9}}
\newlabel{fig:Tsolid_analytical_Dirichlet_P}{{9}{20}{}{figure.9}{}}
\@writefile{lof}{\contentsline {figure}{\numberline {10}{\ignorespaces }}{20}{figure.10}}
\newlabel{fig:Tsolid_Dirichlet_P}{{10}{20}{}{figure.10}{}}
\pbs@newkey{pbs@last@page}{21}
\@writefile{toc}{\contentsline {section}{\numberline {3}G\IeC {\'e}om\IeC {\'e}trie sph\IeC {\'e}rique}{21}{section.3}}
\@writefile{toc}{\contentsline {subsection}{\numberline {3.1}Equation de la chaleur en coordonn\IeC {\'e}es sph\IeC {\'e}rique}{21}{subsection.3.1}}
\pbs@newkey{pbs@last@page}{22}
\@writefile{toc}{\contentsline {subsection}{\numberline {3.2}Probl\IeC {\`e}me}{22}{subsection.3.2}}
\@writefile{toc}{\contentsline {subsection}{\numberline {3.3}R\IeC {\'e}solution}{22}{subsection.3.3}}
\@writefile{toc}{\contentsline {subsubsection}{\numberline {3.3.1}Sous-probl\IeC {\`e}me stationnaire}{22}{subsubsection.3.3.1}}
\@writefile{toc}{\contentsline {subsubsection}{\numberline {3.3.2}Sous-probl\IeC {\`e}me instationnaire homog\IeC {\`e}ne}{22}{subsubsection.3.3.2}}
\pbs@newkey{pbs@last@page}{23}
\newlabel{eq:tr2}{{78}{23}{Sous-problème instationnaire homogène}{equation.3.78}{}}
\newlabel{eq:cmspherical}{{82}{23}{Sous-problème instationnaire homogène}{equation.3.82}{}}
\pbs@newkey{pbs@last@page}{24}
\@writefile{toc}{\contentsline {subsubsection}{\numberline {3.3.3}R\IeC {\'e}sultats}{24}{subsubsection.3.3.3}}
\newlabel{eq:solspherical}{{83}{24}{Résultats}{equation.3.83}{}}
\pbs@newkey{pbs@last@page}{25}
\@writefile{lof}{\contentsline {figure}{\numberline {11}{\ignorespaces }}{25}{figure.11}}
\newlabel{fig:Tsolid_analytical_spherical}{{11}{25}{}{figure.11}{}}
\@writefile{lof}{\contentsline {figure}{\numberline {12}{\ignorespaces }}{25}{figure.12}}
\newlabel{fig:Tsolid_spherical}{{12}{25}{}{figure.12}{}}
\bibstyle{unsrt}
\bibdata{biblio}
\bibcite{Ozisik:1993}{1}
\pbs@newkey{pbs@last@page}{26}
\@writefile{toc}{\contentsline {subsubsection}{\numberline {3.3.4}Prise en compte d'un d\IeC {\'e}gagement de puissance volumique uniforme}{26}{subsubsection.3.3.4}}
\pbs@newkey{pbs@last@page}{27}
\@writefile{lof}{\contentsline {figure}{\numberline {13}{\ignorespaces }}{27}{figure.13}}
\newlabel{fig:Tsolid_analytical_spherical_P}{{13}{27}{}{figure.13}{}}
\@writefile{lof}{\contentsline {figure}{\numberline {14}{\ignorespaces }}{27}{figure.14}}
\newlabel{fig:Tsolid_spherical_P}{{14}{27}{}{figure.14}{}}
